<svg width="11" height="20" viewBox="0 0 11 20" fill="none" xmlns="http://www.w3.org/2000/svg">
<path opacity="0.4" d="M7.13988 19.9958V11.0678H10.383L10.8686 7.58837H7.13988V5.36687C7.13988 4.35952 7.44264 3.67296 9.00606 3.67296L11 3.67211V0.560171C10.655 0.517923 9.47146 0.423218 8.0945 0.423218C5.21969 0.423218 3.25153 2.04464 3.25153 5.02245V7.58846H0V11.0679H3.25143V19.9959L7.13988 19.9958Z" fill="#252B34"/>
</svg>
