<svg width="12" height="20" viewBox="0 0 12 20" fill="none" xmlns="http://www.w3.org/2000/svg">
<path opacity="0.4" d="M5.99985 3.38369C7.22067 3.38369 8.2137 4.32184 8.2137 5.47517C8.2137 6.62754 7.22041 7.56569 5.99985 7.56569C4.7798 7.56569 3.78652 6.62754 3.78652 5.47517C3.78626 4.3216 4.78006 3.38369 5.99985 3.38369ZM5.99985 10.5247C8.94875 10.5247 11.3469 8.25987 11.3469 5.47517C11.3469 2.68903 8.94901 0.423218 5.99985 0.423218C3.05121 0.423218 0.652834 2.68927 0.652834 5.47517C0.652834 8.25987 3.05121 10.5247 5.99985 10.5247ZM8.16303 14.6451C9.26299 14.4084 10.3127 13.9978 11.2678 13.4305C11.6194 13.2215 11.8687 12.8892 11.9609 12.5065C12.0531 12.1238 11.9807 11.7223 11.7594 11.3901C11.65 11.2254 11.5073 11.0828 11.3395 10.9703C11.1717 10.8578 10.9821 10.7776 10.7815 10.7344C10.5809 10.6912 10.3732 10.6858 10.1703 10.7185C9.9675 10.7512 9.77347 10.8213 9.59934 10.9249C7.40878 12.2259 4.58939 12.225 2.40062 10.9249C2.22653 10.8213 2.03251 10.7511 1.82969 10.7184C1.62686 10.6857 1.4192 10.6911 1.21859 10.7344C1.01798 10.7776 0.828355 10.8577 0.660571 10.9702C0.492787 11.0828 0.350134 11.2254 0.240776 11.3901C0.019496 11.7222 -0.0530988 12.1237 0.0389576 12.5063C0.131014 12.889 0.380182 13.2214 0.731662 13.4305C1.68668 13.9976 2.73618 14.4082 3.83591 14.6451L0.846833 17.4694C0.553089 17.747 0.388106 18.1235 0.388178 18.516C0.38825 18.9085 0.553371 19.2849 0.847217 19.5625C1.14106 19.84 1.53956 19.9958 1.95505 19.9958C2.37054 19.9957 2.76898 19.8397 3.06273 19.5621L5.99934 16.7873L8.93775 19.5623C9.08303 19.6998 9.25558 19.8088 9.44552 19.8832C9.63545 19.9576 9.83905 19.9959 10.0447 19.9959C10.2503 19.9959 10.4539 19.9576 10.6438 19.8832C10.8338 19.8088 11.0063 19.6998 11.1516 19.5623C11.2973 19.4251 11.4129 19.262 11.4918 19.0825C11.5707 18.903 11.6113 18.7105 11.6113 18.5161C11.6113 18.3217 11.5707 18.1292 11.4918 17.9497C11.4129 17.7702 11.2973 17.6071 11.1516 17.4699L8.16303 14.6451Z" fill="#252B34"/>
</svg>
