<svg width="22" height="14" viewBox="0 0 22 14" fill="none" xmlns="http://www.w3.org/2000/svg">
<path fill-rule="evenodd" clip-rule="evenodd" d="M21.4952 1.1992C21.6482 0.702697 21.4952 0.337769 20.7673 0.337769H18.3605C17.7485 0.337769 17.4666 0.652979 17.3136 1.00067C17.3136 1.00067 16.0895 3.90553 14.3556 5.79244C13.7946 6.33866 13.5397 6.51225 13.2337 6.51225C13.0807 6.51225 12.8593 6.33866 12.8593 5.84216V1.1992C12.8593 0.603263 12.6817 0.337769 12.1716 0.337769H8.38946C8.00712 0.337769 7.7771 0.614311 7.7771 0.876457C7.7771 1.44143 8.64389 1.57166 8.73329 3.16061V6.61186C8.73329 7.3685 8.59301 7.50576 8.287 7.50576C7.47109 7.50576 5.4865 4.58768 4.30922 1.24892C4.07851 0.599914 3.84712 0.337769 3.232 0.337769H0.825193C0.137532 0.337769 0 0.652979 0 1.00067C0 1.62138 0.816081 4.70017 3.79932 8.77196C5.78838 11.5524 8.59026 13.06 11.1401 13.06C12.6701 13.06 12.8593 12.7252 12.8593 12.1486V10.0469C12.8593 9.37728 13.0042 9.24369 13.4885 9.24369C13.8457 9.24369 14.4575 9.41745 15.8856 10.7581C17.5175 12.3469 17.7863 13.06 18.7044 13.06H21.1112C21.7988 13.06 22.1427 12.7252 21.9443 12.0645C21.7273 11.406 20.9482 10.4508 19.9143 9.31818C19.3533 8.67253 18.5118 7.97732 18.257 7.6298C17.9 7.18285 18.0019 6.98432 18.257 6.58725C18.257 6.58725 21.1892 2.565 21.4952 1.19937V1.1992Z" fill="#0064FE"/>
<path fill-rule="evenodd" clip-rule="evenodd" d="M21.4952 1.1992C21.6482 0.702697 21.4952 0.337769 20.7673 0.337769H18.3605C17.7485 0.337769 17.4666 0.652979 17.3136 1.00067C17.3136 1.00067 16.0895 3.90553 14.3556 5.79244C13.7946 6.33866 13.5397 6.51225 13.2337 6.51225C13.0807 6.51225 12.8593 6.33866 12.8593 5.84216V1.1992C12.8593 0.603263 12.6817 0.337769 12.1716 0.337769H8.38946C8.00712 0.337769 7.7771 0.614311 7.7771 0.876457C7.7771 1.44143 8.64389 1.57166 8.73329 3.16061V6.61186C8.73329 7.3685 8.59301 7.50576 8.287 7.50576C7.47109 7.50576 5.4865 4.58768 4.30922 1.24892C4.07851 0.599914 3.84712 0.337769 3.232 0.337769H0.825193C0.137532 0.337769 0 0.652979 0 1.00067C0 1.62138 0.816081 4.70017 3.79932 8.77196C5.78838 11.5524 8.59026 13.06 11.1401 13.06C12.6701 13.06 12.8593 12.7252 12.8593 12.1486V10.0469C12.8593 9.37728 13.0042 9.24369 13.4885 9.24369C13.8457 9.24369 14.4575 9.41745 15.8856 10.7581C17.5175 12.3469 17.7863 13.06 18.7044 13.06H21.1112C21.7988 13.06 22.1427 12.7252 21.9443 12.0645C21.7273 11.406 20.9482 10.4508 19.9143 9.31818C19.3533 8.67253 18.5118 7.97732 18.257 7.6298C17.9 7.18285 18.0019 6.98432 18.257 6.58725C18.257 6.58725 21.1892 2.565 21.4952 1.19937V1.1992Z" fill="#02BE55"/>
</svg>
